************* Module client_camera
C0200:108, 2: Consider using enumerate instead of iterating with range and len (consider-using-enumerate)
************* Module server_game
W0613: 90,40: Unused argument 'sender_id' (unused-argument)
************* Module server_thing
W0613: 45,20: Unused argument 'send_all' (unused-argument)


Report
======
1200 statements analysed.

Statistics by type
------------------

+---------+-------+-----------+-----------+------------+---------+
|type     |number |old number |difference |%documented |%badname |
+=========+=======+===========+===========+============+=========+
|module   |18     |18         |=          |5.56        |0.00     |
+---------+-------+-----------+-----------+------------+---------+
|class    |20     |20         |=          |30.00       |0.00     |
+---------+-------+-----------+-----------+------------+---------+
|method   |109    |109        |=          |37.61       |0.00     |
+---------+-------+-----------+-----------+------------+---------+
|function |11     |11         |=          |36.36       |0.00     |
+---------+-------+-----------+-----------+------------+---------+



Raw metrics
-----------

+----------+-------+------+---------+-----------+
|type      |number |%     |previous |difference |
+==========+=======+======+=========+===========+
|code      |1287   |53.14 |1286     |+1.00      |
+----------+-------+------+---------+-----------+
|docstring |187    |7.72  |187      |=          |
+----------+-------+------+---------+-----------+
|comment   |491    |20.27 |491      |=          |
+----------+-------+------+---------+-----------+
|empty     |457    |18.87 |457      |=          |
+----------+-------+------+---------+-----------+



Duplication
-----------

+-------------------------+------+---------+-----------+
|                         |now   |previous |difference |
+=========================+======+=========+===========+
|nb duplicated lines      |0     |0        |=          |
+-------------------------+------+---------+-----------+
|percent duplicated lines |0.000 |0.000    |=          |
+-------------------------+------+---------+-----------+



Messages by category
--------------------

+-----------+-------+---------+-----------+
|type       |number |previous |difference |
+===========+=======+=========+===========+
|convention |1      |2        |-1.00      |
+-----------+-------+---------+-----------+
|refactor   |0      |0        |=          |
+-----------+-------+---------+-----------+
|warning    |2      |2        |=          |
+-----------+-------+---------+-----------+
|error      |0      |0        |=          |
+-----------+-------+---------+-----------+



Messages
--------

+-------------------------+------------+
|message id               |occurrences |
+=========================+============+
|unused-argument          |2           |
+-------------------------+------------+
|consider-using-enumerate |1           |
+-------------------------+------------+



Global evaluation
-----------------
Your code has been rated at 9.97/10 (previous run: 9.97/10, +0.01)

